<?xml version="1.0" encoding="utf-8"?>
<!-- Generator: Adobe Illustrator 19.1.0, SVG Export Plug-In . SVG Version: 6.00 Build 0)  -->
<!DOCTYPE svg PUBLIC "-//W3C//DTD SVG 1.1//EN" "http://www.w3.org/Graphics/SVG/1.1/DTD/svg11.dtd">
<svg version="1.1" id="Layer_1" xmlns="http://www.w3.org/2000/svg" xmlns:xlink="http://www.w3.org/1999/xlink" x="0px" y="0px"
	 width="109px" height="220px" viewBox="-125 287 109 220" style="enable-background:new -125 287 109 220;" xml:space="preserve">
<style type="text/css">
	.st0{fill:#FFFFFF;}
</style>
<path class="st0" d="M-42.4,461.5h-75.4l4.3-82.5h63.1l2.9,54.8c0.1,1.9,1.7,3.4,3.7,3.3c1.9-0.1,3.4-1.7,3.3-3.7l-2.9-54.4h15.9
	l4.3,82.5H-42.4z M-82.6,332.5h0.7c0.2,0,0.5,0,0.7,0c-9.6,6.8-15.9,18-15.9,30.7v8.9h-16.4v-8.9
	C-113.5,346.2-99.6,332.5-82.6,332.5 M-70.7,334.6c11.4,4.5,19.5,15.6,19.5,28.6v8.9h-39.1v-8.9C-90.2,350.2-82.1,339.1-70.7,334.6
	 M-59.4,332.5h0.7c17,0,30.8,13.8,30.8,30.7v8.9h-16.3v-8.9c0-12.7-6.3-23.9-15.9-30.7C-59.8,332.5-59.6,332.5-59.4,332.5
	 M-16,464.8l-4.7-89.5c0-0.4-0.1-0.7-0.2-1v-11.1c0-20.8-17-37.7-37.8-37.7h-0.7c-3.9,0-7.7,0.6-11.3,1.7c-3.6-1.1-7.4-1.7-11.3-1.7
	h-0.7c-20.8,0-37.8,16.9-37.8,37.7v12.4c0,0.2,0,0.4,0.1,0.6l-4.6,88.7c0,1,0.3,1.9,1,2.6s1.6,1.1,2.5,1.1h102c1,0,1.9-0.4,2.5-1.1
	C-16.3,466.7-16,465.8-16,464.8"/>
</svg>
