<?xml version="1.0" encoding="utf-8"?>
<!-- Generator: Adobe Illustrator 19.1.0, SVG Export Plug-In . SVG Version: 6.00 Build 0)  -->
<!DOCTYPE svg PUBLIC "-//W3C//DTD SVG 1.1//EN" "http://www.w3.org/Graphics/SVG/1.1/DTD/svg11.dtd" [
	<!ENTITY ns_extend "http://ns.adobe.com/Extensibility/1.0/">
	<!ENTITY ns_ai "http://ns.adobe.com/AdobeIllustrator/10.0/">
	<!ENTITY ns_graphs "http://ns.adobe.com/Graphs/1.0/">
	<!ENTITY ns_vars "http://ns.adobe.com/Variables/1.0/">
	<!ENTITY ns_imrep "http://ns.adobe.com/ImageReplacement/1.0/">
	<!ENTITY ns_sfw "http://ns.adobe.com/SaveForWeb/1.0/">
	<!ENTITY ns_custom "http://ns.adobe.com/GenericCustomNamespace/1.0/">
	<!ENTITY ns_adobe_xpath "http://ns.adobe.com/XPath/1.0/">
]>
<svg version="1.1" id="Layer_1" xmlns:x="&ns_extend;" xmlns:i="&ns_ai;" xmlns:graph="&ns_graphs;"
	 xmlns="http://www.w3.org/2000/svg" xmlns:xlink="http://www.w3.org/1999/xlink" x="0px" y="0px" width="260px" height="220px"
	 viewBox="-125 287 260 220" style="enable-background:new -125 287 260 220;" xml:space="preserve">
<style type="text/css">
	.st0{fill:#FFFFFF;}
</style>
<metadata>
	<sfw  xmlns="&ns_sfw;">
		<slices></slices>
		<sliceSourceBounds  height="24" width="200" y="98" x="30" bottomLeftOrigin="true"></sliceSourceBounds>
	</sfw>
</metadata>
<g>
	<g>
		<path class="st0" d="M-95,409c0-1.3,0-2.5,0-3.9c0.4,0,0.6,0,0.9,0c8.2,0,16.3,0,24.5,0c0.8,0,1.1-0.3,1.5-0.8
			c3.7-6.1,7.3-12.3,11-18.4c0.3-0.6,0.6-0.7,1.3-0.7c8.8,0,17.6,0,26.4,0c0.5,0,1,0,1.4,0.1c1.7,0.4,2.6,2.1,1.8,3.6
			c-1.1,2.2-2.5,4.3-3.8,6.3c-0.9,1.3-2.3,2-3.9,2.2c1.3,1.5,1.3,2.2,0.3,4c-0.9,1.5-1.8,3-2.7,4.6c-1.1,2-2.8,2.9-5.2,2.9
			c-7.3,0-14.6,0-21.9,0c-10.2,0-20.4,0-30.6,0C-94.3,409-94.6,409-95,409z M-54.3,405.1c2.6,0,5,0.1,7.4,0c0.6,0,1.3-0.3,1.6-0.7
			c0.9-1.2,1.7-2.5,2.4-3.8c0.4-0.9-0.1-1.5-1.1-1.5c-2,0-4.1,0-6.2,0c-0.2,0-0.6,0.1-0.7,0.3C-52,401.2-53.1,403-54.3,405.1z
			 M-48.2,395.1c2.6,0,5.1,0,7.6,0c0.8,0,1.5-0.5,2-1.2c0.5-0.8,1.1-1.6,1.6-2.5c0.1-0.3,0.3-0.6,0.4-0.9c0.2-0.8-0.1-1.3-1.1-1.3
			c-2.1,0-4.2,0-6.4,0c-0.2,0-0.5,0.1-0.6,0.3C-45.9,391.2-47,393.1-48.2,395.1z"/>
		<path class="st0" d="M-16.1,409c-4.2,0-8.3,0-12.4,0c-0.4,0-0.7,0-1.1,0c-1.8-0.2-2.6-1.6-1.9-3.3c0.1-0.3,0.3-0.6,0.4-0.8
			c3.1-5.2,6.3-10.5,9.4-15.6c1.4-2.4,3.5-3.6,6.4-3.9c0.8-0.1,1.7-0.1,2.5-0.1c7.2,0,14.3,0,21.6,0c0.6,0,1.3,0.1,1.8,0.3
			c1.8,0.6,2.4,2.2,1.4,3.9c-2.1,3.5-4.2,7-6.3,10.5c-1,1.7-2,3.4-3,5.1c-0.4,0.7-0.9,1.3-1.4,2c-1.2,1.5-2.8,2.2-4.7,2.2
			C-7.7,409-11.9,409-16.1,409z M-13.9,405.1c1.8,0.1,3-0.7,4-2.2c2.1-3.6,4.4-7.2,6.5-10.9c0.2-0.4,0.4-0.7,0.6-1.1
			c0.4-0.9,0.1-1.5-0.8-1.7c-2.6-0.4-4.2,0.1-5.5,2.2c-2.1,3.6-4.4,7.2-6.6,10.9c-0.2,0.4-0.4,0.6-0.6,1c-0.4,0.8-0.2,1.4,0.8,1.6
			C-15.1,405.1-14.5,405.1-13.9,405.1z"/>
		<path class="st0" d="M105,385.1c0,1.3,0,2.6,0,3.9c-0.4,0-0.7,0-1.1,0c-11.3,0-22.6,0-33.9,0c-0.6,0-1,0.1-1.3,0.7
			c-1,1.8-2,3.4-3.1,5.3c6.4,0,12.6,0,18.9,0c-0.8,1.3-1.5,2.6-2.2,3.7c-0.1,0.2-0.6,0.2-0.8,0.2c-5.8,0-11.6,0-17.4,0
			c-0.6,0-1,0.1-1.3,0.7c-0.8,1.5-1.8,3-2.7,4.5c-0.1,0.2-0.2,0.4-0.4,0.8c6.4,0,12.6,0,19,0c-0.8,1.3-1.6,2.6-2.3,3.8
			c-0.1,0.1-0.4,0.2-0.6,0.2c-10.9,0-21.8,0-32.7,0c0,0-0.1,0-0.2-0.1c0.1-0.3,0.3-0.5,0.4-0.8c4.5-7.4,8.9-14.9,13.4-22.4
			c0.4-0.6,0.6-0.7,1.3-0.7c15.4,0,30.7,0,46.1,0C104.4,385.1,104.6,385.1,105,385.1z"/>
		<path class="st0" d="M34.5,391.5c0.2-0.8,0.6-1.5-0.2-2.1c-0.8-0.6-1.7-0.4-2.5-0.1c-0.3,0.1-0.6,0.4-0.8,0.6
			c-1.1,1.6-2.2,3.3-3.3,5.1c0.6,0,0.8,0,1.1,0c4.2,0,8.5,0,12.7,0c1.2,0,2.4,0.1,3,1.2c0.6,1.1,0.2,2.2-0.4,3.3
			c-1.3,2.1-2.6,4.2-3.9,6.3c-1.3,2.1-3.1,3.1-5.6,3.1c-8.4,0-16.8,0-25.2,0c-0.3,0-0.6,0-0.9-0.1c-1.7-0.3-2.4-1.5-1.6-3
			c0.5-1,1.1-1.9,1.7-2.8c0.1-0.1,0.4-0.3,0.6-0.3c4.6,0,9.2,0,13.9,0c-0.1,0.1-0.1,0.3-0.1,0.4c-0.6,1.3-0.2,1.8,1.3,1.8
			c1.5,0,2.6-0.6,3.4-1.9c0.8-1.3,1.6-2.7,2.3-4.1c-0.4,0-0.7-0.1-1-0.1c-4.4,0-8.8,0-13.2,0c-0.5,0-1.1,0-1.6-0.1
			c-1.3-0.2-1.8-1.1-1.5-2.3c0.2-0.6,0.5-1.3,0.8-1.9c1.3-2.2,2.7-4.3,3.8-6.5c1.2-2.2,3-3.2,5.6-3.2c4.2,0,8.5,0,12.7,0
			c4.2,0,8.4,0,12.6,0c0.4,0,0.8,0,1.1,0.1c1.2,0.2,1.9,1.1,1.6,2.2c-0.5,1.4-1.3,2.7-1.9,4.1c-0.1,0.1-0.4,0.2-0.6,0.2
			c-4.6,0-9.1,0-13.7,0C34.6,391.6,34.5,391.6,34.5,391.5z"/>
	</g>
</g>
</svg>
