<?xml version="1.0" encoding="utf-8"?>
<!-- Generator: Adobe Illustrator 19.1.0, SVG Export Plug-In . SVG Version: 6.00 Build 0)  -->
<svg version="1.1" id="Layer_1" xmlns="http://www.w3.org/2000/svg" xmlns:xlink="http://www.w3.org/1999/xlink" x="0px" y="0px"
	 viewBox="0 0 1920 328" style="enable-background:new 0 0 1920 328;" xml:space="preserve" width="1920" height="328">
<style type="text/css">
	.st0{fill:#66BCB4;}
	.st1{fill:#5FAFA8;}
	.st2{fill:#7CE5DB;}
	.st3{fill:#6ED6CE;}
</style>
<g>
	<polygon class="st0" points="640.3,164 800.2,246 960.2,164 800.2,82 	"/>
	<polygon class="st1" points="320.4,164 368.9,188.8 368.9,188.8 480.4,131.7 591.8,188.8 640.3,164 480.4,82 	"/>
	<polygon class="st2" points="591.8,188.8 480.4,131.7 368.9,188.8 480.4,246 	"/>
	<polygon class="st3" points="320.4,164 480.4,82 320.4,0 160.5,82 	"/>
	<polygon class="st3" points="320.4,328 480.4,246 368.9,188.8 368.9,188.8 320.4,164 160.5,246 	"/>
	<polygon class="st2" points="0,164 160.5,246 320.4,164 160.5,82 	"/>
	<polygon class="st2" points="800.2,82 960.2,164 1120.1,82 960.2,0 911.7,24.8 	"/>
	<polygon class="st3" points="1759.8,131.7 1871.3,188.8 1920,164 1759.8,82 1599.9,164 1648.3,188.8 	"/>
	<polygon class="st0" points="1759.8,131.7 1648.3,188.8 1759.8,246 1871.3,188.8 	"/>
	<polygon class="st2" points="1759.8,82 1599.9,0 1551.4,24.8 1439.9,82 1599.9,164 	"/>
	<polygon class="st1" points="1648.3,188.8 1599.9,164 1439.9,246 1599.9,328 1759.8,246 	"/>
	<polygon class="st0" points="1599.9,164 1439.9,82 1280,164 1439.9,246 	"/>
	<polygon class="st0" points="1231.6,188.8 1280,164 1120.1,82 960.2,164 1008.6,188.8 1120.1,131.7 	"/>
	<polygon class="st1" points="1120.1,246 1231.6,188.8 1231.6,188.8 1120.1,131.7 1008.6,188.8 1008.6,188.8 	"/>
</g>
</svg>
