<?xml version="1.0" encoding="utf-8"?>
<!-- Generator: Adobe Illustrator 19.1.0, SVG Export Plug-In . SVG Version: 6.00 Build 0)  -->
<svg version="1.1" id="Layer_1" xmlns="http://www.w3.org/2000/svg" xmlns:xlink="http://www.w3.org/1999/xlink" x="0px" y="0px"
	 viewBox="0 0 1920 328" style="enable-background:new 0 0 1920 328;" xml:space="preserve" width="1920" height="328">
<style type="text/css">
	.st0{fill:#4B4B4B;}
	.st1{fill:#4D4D4D;}
	.st2{fill:#464646;}
	.st3{fill:#4F4F4F;}
	.st4{fill:#535353;}
	.st5{fill:#424242;}
	.st6{fill:none;}
</style>
<g>
	<polygon class="st0" points="480,82 480,82 320,164 480,246 640,164 480,82 	"/>
	<polygon class="st0" points="0,164 0,164 0,164 0,328 271.5,188.8 320,164 0,0 	"/>
	<path class="st0" d="M1599.7,164l-320-164L959.9,164L799.9,82l-160,82l160,82l159.9-82l159.9,82l160-82l0.1,0l0.2,0v0l1.3,0.7
		l158.5,81.3L1599.7,164L1920,328V0L1599.7,164z M1279.8,164L1279.8,164L1279.8,164L1279.8,164z"/>
</g>
<g>
	<polygon class="st1" points="0,164 48.5,188.8 160,131.7 271.5,188.8 320,164 160,82 	"/>
	<polygon class="st2" points="271.5,188.8 160,131.7 48.5,188.8 160,246 	"/>
	<polygon class="st3" points="1279.9,0 1231.4,24.8 1119.9,82 1279.9,164 1439.8,82 	"/>
	<polygon class="st4" points="1279.9,164 1119.9,82 959.9,164 1119.9,246 	"/>
	<polygon class="st1" points="799.9,131.7 911.5,188.8 959.9,164 799.9,82 640,164 688.4,188.8 	"/>
	<polygon class="st2" points="799.9,131.7 688.4,188.8 799.9,246 911.5,188.8 	"/>
	<polygon class="st4" points="480,82 480,82 480,82 320,164 480,246 640,164 	"/>
	<polygon class="st4" points="1599.8,164 1759.8,246 1920,164 1759.8,82 	"/>
	<polygon class="st5" points="1279.9,164 1279.9,164 1279.9,164 1279.9,164 1281.3,164.7 1328.3,188.8 1439.8,131.7 1551.4,188.8 
		1599.8,164 1439.8,82 	"/>
	<polygon class="st1" points="1551.4,188.8 1439.8,131.7 1328.3,188.8 1439.8,246 	"/>
	<path class="st6" d="M0,164"/>
	<polyline class="st3" points="0,164 160,82 0,0 	"/>
	<polygon class="st3" points="1759.8,82 1920,164 1920,0 	"/>
	<polyline class="st5" points="0,328 160,246 48.5,188.9 0,164 0,164 	"/>
	<polygon class="st5" points="1759.9,246 1920,328 1920,164 	"/>
</g>
</svg>
